…
```{r}
pcr_data_tidy <- pcr_data %>%
   mutate(sample = str_extract(file, ".{3}[0-9]{1}"),
          replicate = str_extract(file, "(?<=_)\\d+")) %>%
   select(-file)
```



Of note, the resulting **tidy** `tibble` should be:

```
# A tibble: 960 x 7
   well  gene      Ct type  flag  sample replicate
   <chr> <chr>  <dbl> <chr> <chr> <chr>  <chr>    
 1 A1    gene1   33.6 data  OK    mlc1   1        
 2 A2    gene2   22.4 data  OK    mlc1   1        
 3 A3    gene3   31.8 data  OK    mlc1   1        
 4 A4    gene4   30.2 data  OK    mlc1   1        
 5 A5    gene5   33.1 data  OK    mlc1   1        
 6 A6    gene6   33.8 data  OK    mlc1   1        
 7 A7    gene7   31.0 data  OK    mlc1   1        
 8 A8    gene8   16.3 data  OK    mlc1   1        
 9 A9    gene9   32.6 data  OK    mlc1   1        
10 A10   gene10  30.1 data  OK    mlc1   1        
# … with 950 more rows
```
…
