Wrapup Tidyverse
…
Use vroom to import the file mlc1_1.csv

vroom("data/pcr/mlc1_1.csv")

## Rows: 96
## Columns: 5
## Delimiter: " "
## chr [4]: well, gene, type, flag
## dbl [1]: Ct
## 
## Use `spec()` to retrieve the guessed column specification
## Pass a specification to the `col_types` argument to quiet this message

## # A tibble: 96 x 5
##    well  gene      Ct type  flag 
##    <chr> <chr>  <dbl> <chr> <chr>
##  1 A1    gene1   33.6 data  OK   
##  2 A2    gene2   22.4 data  OK   
##  3 A3    gene3   31.8 data  OK   
##  4 A4    gene4   30.2 data  OK   
##  5 A5    gene5   33.1 data  OK   
##  6 A6    gene6   33.8 data  OK   
##  7 A7    gene7   31.0 data  OK   
##  8 A8    gene8   16.3 data  OK   
##  9 A9    gene9   32.6 data  OK   
## 10 A10   gene10  30.1 data  OK   
## #  with 86 more rows
…
Then, we obtain the full path to each file, necessary to access the data.

vroom(dir(path = "data/pcr", full.names = T), id = "file")

## Rows: 960
## Columns: 6
## Delimiter: " "
## chr [4]: well, gene, type, flag
## dbl [1]: Ct
## 
## Use `spec()` to retrieve the guessed column specification
## Pass a specification to the `col_types` argument to quiet this message

## # A tibble: 960 x 6
##    file                well  gene      Ct type  flag 
##    <chr>               <chr> <chr>  <dbl> <chr> <chr>
##  1 data/pcr/mlc1_1.csv A1    gene1   33.6 data  OK   
##  2 data/pcr/mlc1_1.csv A2    gene2   22.4 data  OK   
##  3 data/pcr/mlc1_1.csv A3    gene3   31.8 data  OK   
##  4 data/pcr/mlc1_1.csv A4    gene4   30.2 data  OK   
##  5 data/pcr/mlc1_1.csv A5    gene5   33.1 data  OK   
##  6 data/pcr/mlc1_1.csv A6    gene6   33.8 data  OK   
##  7 data/pcr/mlc1_1.csv A7    gene7   31.0 data  OK   
##  8 data/pcr/mlc1_1.csv A8    gene8   16.3 data  OK   
##  9 data/pcr/mlc1_1.csv A9    gene9   32.6 data  OK   
## 10 data/pcr/mlc1_1.csv A10   gene10  30.1 data  OK   
## #  with 950 more rows
…
Several options to achieve this are available. The most elegant is str_extract() with appropriate regular expressions. You can also get rid of the file column afterwards.

But extracting the filenames without extension and use separate() is also an alternative.

For the regular expression, if you want to extract the digit after the _ you can use the positive look-behind assertion: "(?<=_)\\d"

pcr_data_tidy <- pcr_data %>%
   mutate(sample = str_extract(file, ".{3}[0-9]{1}"),
          replicate = str_extract(file, "(?<=_)\\d+")) %>%
   select(-file)

Of note, the resulting tidy tibble should be:

# A tibble: 960 x 7
   well  gene      Ct type  flag  sample replicate
   <chr> <chr>  <dbl> <chr> <chr> <chr>  <chr>    
 1 A1    gene1   33.6 data  OK    mlc1   1        
 2 A2    gene2   22.4 data  OK    mlc1   1        
 3 A3    gene3   31.8 data  OK    mlc1   1        
 4 A4    gene4   30.2 data  OK    mlc1   1        
 5 A5    gene5   33.1 data  OK    mlc1   1        
 6 A6    gene6   33.8 data  OK    mlc1   1        
 7 A7    gene7   31.0 data  OK    mlc1   1        
 8 A8    gene8   16.3 data  OK    mlc1   1        
 9 A9    gene9   32.6 data  OK    mlc1   1        
10 A10   gene10  30.1 data  OK    mlc1   1        
#  with 950 more rows
…
