Yeast transcriptomics analysis with Tidyverse
…
systematic_name

number

Special characters such as pipes (|) must be despecialized as they have a specific meaning. In R, you have to use 2 backslashes like \\| for one pipe |

cleaned_data <- original_data %>%
   separate(NAME,
            c("name", "BP", "MF", "systematic_name", "number"),
            sep = "\\|\\|",
            convert=TRUE)

cleaned_data

## # A tibble: 5,537 x 44
##    GID    YORF   name  BP     MF      systematic_name number GWEIGHT G0.05  G0.1
##    <chr>  <chr>  <chr> <chr>  <chr>   <chr>            <int>   <dbl> <dbl> <dbl>
##  1 GENE1 A_06_ "SFB " ER  " mole " YNL049C "     1.08e6       1 -0.24 -0.13
##  2 GENE4 A_06_ ""    " bio " mole " YNL095C "     1.09e6       1  0.28  0.13
##  3 GENE4 A_06_ "QRI " pro " meta " YDL104C "     1.09e6       1 -0.02 -0.27
##  4 GENE1 A_06_ "CFT " mRN " RNA  " YLR115W "     1.08e6       1 -0.33 -0.41
##  5 GENE5 A_06_ "SSO " ves " t-SN " YMR183C "     1.08e6       1  0.05  0.02
##  6 GENE2 A_06_ "PSP " bio " mole " YML017W "     1.08e6       1 -0.69 -0.03
##  7 GENE1 A_06_ "RIB " rib " pseu " YOL066C "     1.08e6       1 -0.55 -0.3 
##  8 GENE5 A_06_ "VMA " vac " hydr " YPR036W "     1.09e6       1 -0.75 -0.12
##  9 GENE2 A_06_ "EDC " dea " mole " YEL015W "     1.08e6       1 -0.24 -0.22
## 10 GENE2 A_06_ "VPS " pro " prot " YOR069W "     1.08e6       1 -0.16 -0.38
## #  with 5,527 more rows, and 34 more variables: G0.15 <dbl>, G0.2 <dbl>,
## #   G0.25 <dbl>, G0.3 <dbl>, N0.05 <dbl>, N0.1 <dbl>, N0.15 <dbl>, N0.2 <dbl>,
## #   N0.25 <dbl>, N0.3 <dbl>, P0.05 <dbl>, P0.1 <dbl>, P0.15 <dbl>, P0.2 <dbl>,
## #   P0.25 <dbl>, P0.3 <dbl>, S0.05 <dbl>, S0.1 <dbl>, S0.15 <dbl>, S0.2 <dbl>,
## #   S0.25 <dbl>, S0.3 <dbl>, L0.05 <dbl>, L0.1 <dbl>, L0.15 <dbl>, L0.2 <dbl>,
## #   L0.25 <dbl>, L0.3 <dbl>, U0.05 <dbl>, U0.1 <dbl>, U0.15 <dbl>, U0.2 <dbl>,
## #   U0.25 <dbl>, U0.3 <dbl>
…
Remove the white spaces that start and end strings in the columns name to number. Save as cleaned_ws_data

dplyr allows us to apply a function (in our case str_trim()) to selected columns using across(). To remove these white-spaces, stringr provides a function called str_trim(). Lets test how the function works:

stringr::str_trim(" Removing whitespaces at both ends ")

## [1] "Removing whitespaces at both ends"

cleaned_ws_data <- cleaned_data %>%
   mutate(across(c("name", "BP", "MF", "systematic_name", "number"), str_trim)) 

cleaned_ws_data

## # A tibble: 5,537 x 44
##    GID    YORF   name  BP     MF      systematic_name number GWEIGHT G0.05  G0.1
##    <chr>  <chr>  <chr> <chr>  <chr>   <chr>           <chr>    <dbl> <dbl> <dbl>
##  1 GENE1 A_06_ "SFB ER to molecu YNL049C         10821       1 -0.24 -0.13
##  2 GENE4 A_06_ ""    biolo molecu YNL095C         10862       1  0.28  0.13
##  3 GENE4 A_06_ "QRI prote metall YDL104C         10859       1 -0.02 -0.27
##  4 GENE1 A_06_ "CFT mRNA  RNA bi YLR115W         10819       1 -0.33 -0.41
##  5 GENE5 A_06_ "SSO vesic t-SNAR YMR183C         10812       1  0.05  0.02
##  6 GENE2 A_06_ "PSP biolo molecu YML017W         10830       1 -0.69 -0.03
##  7 GENE1 A_06_ "RIB ribof pseudo YOL066C         10817       1 -0.55 -0.3 
##  8 GENE5 A_06_ "VMA vacuo hydrog YPR036W         10868       1 -0.75 -0.12
##  9 GENE2 A_06_ "EDC deade molecu YEL015W         10829       1 -0.24 -0.22
## 10 GENE2 A_06_ "VPS prote protei YOR069W         10833       1 -0.16 -0.38
## #  with 5,527 more rows, and 34 more variables: G0.15 <dbl>, G0.2 <dbl>,
## #   G0.25 <dbl>, G0.3 <dbl>, N0.05 <dbl>, N0.1 <dbl>, N0.15 <dbl>, N0.2 <dbl>,
## #   N0.25 <dbl>, N0.3 <dbl>, P0.05 <dbl>, P0.1 <dbl>, P0.15 <dbl>, P0.2 <dbl>,
## #   P0.25 <dbl>, P0.3 <dbl>, S0.05 <dbl>, S0.1 <dbl>, S0.15 <dbl>, S0.2 <dbl>,
## #   S0.25 <dbl>, S0.3 <dbl>, L0.05 <dbl>, L0.1 <dbl>, L0.15 <dbl>, L0.2 <dbl>,
## #   L0.25 <dbl>, L0.3 <dbl>, U0.05 <dbl>, U0.1 <dbl>, U0.15 <dbl>, U0.2 <dbl>,
## #   U0.25 <dbl>, U0.3 <dbl>

We are not going to use every column of the dataframe. Remove the unnecessary columns: number, GID, YORF and GWEIGHT. Save as cleaned_ws_data

cleaned_ws_data <- cleaned_ws_data %>%
   select(-c("GID", "YORF", "GWEIGHT", "number"))

cleaned_ws_data

## # A tibble: 5,537 x 40
##    name   BP    MF     systematic_name G0.05  G0.1 G0.15  G0.2 G0.25  G0.3 N0.05
##    <chr>  <chr> <chr>  <chr>           <dbl> <dbl> <dbl> <dbl> <dbl> <dbl> <dbl>
##  1 "SFB2" ER t molec YNL049C         -0.24 -0.13 -0.21 -0.15 -0.05 -0.05  0.2 
##  2 ""     biol molec YNL095C          0.28  0.13 -0.4  -0.48 -0.11  0.17  0.31
##  3 "QRI7" prot metal YDL104C         -0.02 -0.27 -0.27 -0.02  0.24  0.25  0.23
##  4 "CFT2" mRNA RNA b YLR115W         -0.33 -0.41 -0.24 -0.03 -0.03  0     0.2 
##  5 "SSO2" vesi t-SNA YMR183C          0.05  0.02  0.4   0.34 -0.13 -0.14 -0.35
##  6 "PSP2" biol molec YML017W         -0.69 -0.03  0.23  0.2   0    -0.27  0.17
##  7 "RIB2" ribo pseud YOL066C         -0.55 -0.3  -0.12 -0.03 -0.16 -0.11  0.04
##  8 "VMA1 vacu hydro YPR036W         -0.75 -0.12 -0.07  0.02 -0.32 -0.41  0.11
##  9 "EDC3" dead molec YEL015W         -0.24 -0.22  0.14  0.06  0    -0.13  0.3 
## 10 "VPS5" prot prote YOR069W         -0.16 -0.38  0.05  0.14 -0.04 -0.01  0.39
## #  with 5,527 more rows, and 29 more variables: N0.1 <dbl>, N0.15 <dbl>,
## #   N0.2 <dbl>, N0.25 <dbl>, N0.3 <dbl>, P0.05 <dbl>, P0.1 <dbl>, P0.15 <dbl>,
## #   P0.2 <dbl>, P0.25 <dbl>, P0.3 <dbl>, S0.05 <dbl>, S0.1 <dbl>, S0.15 <dbl>,
## #   S0.2 <dbl>, S0.25 <dbl>, S0.3 <dbl>, L0.05 <dbl>, L0.1 <dbl>, L0.15 <dbl>,
## #   L0.2 <dbl>, L0.25 <dbl>, L0.3 <dbl>, U0.05 <dbl>, U0.1 <dbl>, U0.15 <dbl>,
## #   U0.2 <dbl>, U0.25 <dbl>, U0.3 <dbl>

Do you think that our dataset is now tidy?

No, the dataset is not tidy yet because the samples are still all in columns instead of observations in a sample column.

Column names must not contain values, pivot the tibble so each column represents a variable. Save as cleaned_data_melt

At this point we are storing the sample name (will contain G0.05 ) as a new column sample and values in a column named expression.

cleaned_data_melt <- cleaned_ws_data %>%
   pivot_longer(cols = matches("^[A-Z]\\d\\.\\d+$"), names_to = "sample", values_to = "expression")

cleaned_data_melt

## # A tibble: 199,332 x 6
##    name  BP                MF                  systematic_name sample expression
##    <chr> <chr>             <chr>               <chr>           <chr>       <dbl>
##  1 SFB2  ER to Golgi tran molecular function YNL049C         G0.05       -0.24
##  2 SFB2  ER to Golgi tran molecular function YNL049C         G0.1        -0.13
##  3 SFB2  ER to Golgi tran molecular function YNL049C         G0.15       -0.21
##  4 SFB2  ER to Golgi tran molecular function YNL049C         G0.2        -0.15
##  5 SFB2  ER to Golgi tran molecular function YNL049C         G0.25       -0.05
##  6 SFB2  ER to Golgi tran molecular function YNL049C         G0.3        -0.05
##  7 SFB2  ER to Golgi tran molecular function YNL049C         N0.05        0.2 
##  8 SFB2  ER to Golgi tran molecular function YNL049C         N0.1         0.24
##  9 SFB2  ER to Golgi tran molecular function YNL049C         N0.15       -0.2 
## 10 SFB2  ER to Golgi tran molecular function YNL049C         N0.2        -0.42
## #  with 199,322 more rows

Observe the sample column, print the unique values of this column.

cleaned_data_melt %>%
   distinct(sample)

## # A tibble: 36 x 1
##    sample
##    <chr> 
##  1 G0.05 
##  2 G0.1  
##  3 G0.15 
##  4 G0.2  
##  5 G0.25 
##  6 G0.3  
##  7 N0.05 
##  8 N0.1  
##  9 N0.15 
## 10 N0.2  
## #  with 26 more rows
We are again facing the problem that two variables are stored in a single column. The nutrient (G, N etc.) is the first character, then the growth rate.

Use the same function as before to split the sample column into two variables nutrient and rate. Save as cleaned_data_melt

Use the appropriate delimitation in sep and consider using the convert argument. It allows to convert strings to number when relevant like here.

cleaned_data_melt <- cleaned_data_melt %>%
   separate(sample,
            c("nutrient", "growth_rate"),
            sep = 1,
            convert=TRUE)

cleaned_data_melt

## # A tibble: 199,332 x 7
##    name  BP          MF          systematic_name nutrient growth_rate expression
##    <chr> <chr>       <chr>       <chr>           <chr>          <dbl>      <dbl>
##  1 SFB2  ER to Golg molecular  YNL049C         G               0.05      -0.24
##  2 SFB2  ER to Golg molecular  YNL049C         G               0.1       -0.13
##  3 SFB2  ER to Golg molecular  YNL049C         G               0.15      -0.21
##  4 SFB2  ER to Golg molecular  YNL049C         G               0.2       -0.15
##  5 SFB2  ER to Golg molecular  YNL049C         G               0.25      -0.05
##  6 SFB2  ER to Golg molecular  YNL049C         G               0.3       -0.05
##  7 SFB2  ER to Golg molecular  YNL049C         N               0.05       0.2 
##  8 SFB2  ER to Golg molecular  YNL049C         N               0.1        0.24
##  9 SFB2  ER to Golg molecular  YNL049C         N               0.15      -0.2 
## 10 SFB2  ER to Golg molecular  YNL049C         N               0.2       -0.42
## #  with 199,322 more rows
…
# Or more elegant:
code <- list(G = "Glucose", 
         L = "Leucine", 
         P = "Phosphate",
         S = "Sulfate", 
         N = "Ammonia", 
         U = "Uracil")

cleaned_data_melt_nut <- cleaned_data_melt %>% 
        mutate(nutrient = recode(nutrient, !!! code))

cleaned_data_melt_nut   

## # A tibble: 199,332 x 7
##    name  BP          MF          systematic_name nutrient growth_rate expression
##    <chr> <chr>       <chr>       <chr>           <chr>          <dbl>      <dbl>
##  1 SFB2  ER to Golg molecular  YNL049C         Glucose         0.05      -0.24
##  2 SFB2  ER to Golg molecular  YNL049C         Glucose         0.1       -0.13
##  3 SFB2  ER to Golg molecular  YNL049C         Glucose         0.15      -0.21
##  4 SFB2  ER to Golg molecular  YNL049C         Glucose         0.2       -0.15
##  5 SFB2  ER to Golg molecular  YNL049C         Glucose         0.25      -0.05
##  6 SFB2  ER to Golg molecular  YNL049C         Glucose         0.3       -0.05
##  7 SFB2  ER to Golg molecular  YNL049C         Ammonia         0.05       0.2 
##  8 SFB2  ER to Golg molecular  YNL049C         Ammonia         0.1        0.24
##  9 SFB2  ER to Golg molecular  YNL049C         Ammonia         0.15      -0.2 
## 10 SFB2  ER to Golg molecular  YNL049C         Ammonia         0.2       -0.42
## #  with 199,322 more rows
…
Two variables must be present for the further analysis:

gene expression values named as expression

systematic id (gene ids) named as systematic_name

Delete observations that are missing or empty ("") in any of the two mandatory variables. How many rows did you remove? Save as cleaned_brauer

cleaned_brauer <- cleaned_data_melt_nut %>%
   na_if("") %>% # recode empty strings "" by NAs
   drop_na(expression, systematic_name)

cleaned_brauer

## # A tibble: 198,430 x 7
##    name  BP          MF          systematic_name nutrient growth_rate expression
##    <chr> <chr>       <chr>       <chr>           <chr>          <dbl>      <dbl>
##  1 SFB2  ER to Golg molecular  YNL049C         Glucose         0.05      -0.24
##  2 SFB2  ER to Golg molecular  YNL049C         Glucose         0.1       -0.13
##  3 SFB2  ER to Golg molecular  YNL049C         Glucose         0.15      -0.21
##  4 SFB2  ER to Golg molecular  YNL049C         Glucose         0.2       -0.15
##  5 SFB2  ER to Golg molecular  YNL049C         Glucose         0.25      -0.05
##  6 SFB2  ER to Golg molecular  YNL049C         Glucose         0.3       -0.05
##  7 SFB2  ER to Golg molecular  YNL049C         Ammonia         0.05       0.2 
##  8 SFB2  ER to Golg molecular  YNL049C         Ammonia         0.1        0.24
##  9 SFB2  ER to Golg molecular  YNL049C         Ammonia         0.15      -0.2 
## 10 SFB2  ER to Golg molecular  YNL049C         Ammonia         0.2       -0.42
## #  with 198,420 more rows
…
